<?xml version="1.0" encoding="UTF-8"?>
<CustomTab xmlns="http://soap.sforce.com/2006/04/metadata">
    <label>Cleaner Configuration</label>
    <mobileReady>false</mobileReady>
    <motif>Custom20: Airplane</motif>
    <page>Cleaner_Configuration</page>
</CustomTab>
